^G:\COCOSPROJECTS\POKEMON\PROJ.WIN32\DEBUG.WIN32\APPDELEGATE.OBJ|G:\COCOSPROJECTS\POKEMON\PROJ.WIN32\DEBUG.WIN32\APPPOKEMON.OBJ|G:\COCOSPROJECTS\POKEMON\PROJ.WIN32\DEBUG.WIN32\BELTUI.OBJ|G:\COCOSPROJECTS\POKEMON\PROJ.WIN32\DEBUG.WIN32\CHARACTER.OBJ|G:\COCOSPROJECTS\POKEMON\PROJ.WIN32\DEBUG.WIN32\DEBUG.OBJ|G:\COCOSPROJECTS\POKEMON\PROJ.WIN32\DEBUG.WIN32\GAME.RES|G:\COCOSPROJECTS\POKEMON\PROJ.WIN32\DEBUG.WIN32\MAIN.OBJ|G:\COCOSPROJECTS\POKEMON\PROJ.WIN32\DEBUG.WIN32\MAPMANAGER.OBJ|G:\COCOSPROJECTS\POKEMON\PROJ.WIN32\DEBUG.WIN32\POKEMON.OBJ|G:\COCOSPROJECTS\POKEMON\PROJ.WIN32\DEBUG.WIN32\SCENEMANAGER.OBJ|G:\COCOSPROJECTS\POKEMON\PROJ.WIN32\DEBUG.WIN32\SOUNDMANAGER.OBJ|G:\COCOSPROJECTS\POKEMON\PROJ.WIN32\DEBUG.WIN32\TRAINER.OBJ|G:\COCOSPROJECTS\POKEMON\PROJ.WIN32\DEBUG.WIN32\UIMANAGER.OBJ
C:\PROGRAM FILES (X86)\MICROSOFT SDKS\WINDOWS\V7.1A\LIB\OPENGL32.LIB
G:\COCOSPROJECTS\POKEMON\PROJ.WIN32\DEBUG.WIN32\GLEW32.LIB
G:\COCOSPROJECTS\POKEMON\PROJ.WIN32\DEBUG.WIN32\LIBZLIB.LIB
G:\COCOSPROJECTS\POKEMON\PROJ.WIN32\DEBUG.WIN32\LIBPNG.LIB
G:\COCOSPROJECTS\POKEMON\PROJ.WIN32\DEBUG.WIN32\LIBJPEG.LIB
G:\COCOSPROJECTS\POKEMON\PROJ.WIN32\DEBUG.WIN32\LIBTIFF.LIB
G:\COCOSPROJECTS\POKEMON\PROJ.WIN32\DEBUG.WIN32\LIBWEBP.LIB
G:\COCOSPROJECTS\POKEMON\PROJ.WIN32\DEBUG.WIN32\LIBICONV.LIB
G:\COCOSPROJECTS\POKEMON\PROJ.WIN32\DEBUG.WIN32\GLFW3.LIB
G:\COCOSPROJECTS\POKEMON\PROJ.WIN32\DEBUG.WIN32\FREETYPE250.LIB
C:\PROGRAM FILES (X86)\MICROSOFT SDKS\WINDOWS\V7.1A\LIB\WINMM.LIB
C:\PROGRAM FILES (X86)\MICROSOFT SDKS\WINDOWS\V7.1A\LIB\WS2_32.LIB
G:\COCOSPROJECTS\POKEMON\PROJ.WIN32\DEBUG.WIN32\LIBCHIPMUNK.LIB
C:\PROGRAM FILES (X86)\MICROSOFT SDKS\WINDOWS\V7.1A\LIB\KERNEL32.LIB
C:\PROGRAM FILES (X86)\MICROSOFT SDKS\WINDOWS\V7.1A\LIB\USER32.LIB
C:\PROGRAM FILES (X86)\MICROSOFT SDKS\WINDOWS\V7.1A\LIB\GDI32.LIB
C:\PROGRAM FILES (X86)\MICROSOFT SDKS\WINDOWS\V7.1A\LIB\WINSPOOL.LIB
C:\PROGRAM FILES (X86)\MICROSOFT SDKS\WINDOWS\V7.1A\LIB\COMDLG32.LIB
C:\PROGRAM FILES (X86)\MICROSOFT SDKS\WINDOWS\V7.1A\LIB\ADVAPI32.LIB
C:\PROGRAM FILES (X86)\MICROSOFT SDKS\WINDOWS\V7.1A\LIB\SHELL32.LIB
C:\PROGRAM FILES (X86)\MICROSOFT SDKS\WINDOWS\V7.1A\LIB\OLE32.LIB
C:\PROGRAM FILES (X86)\MICROSOFT SDKS\WINDOWS\V7.1A\LIB\OLEAUT32.LIB
C:\PROGRAM FILES (X86)\MICROSOFT SDKS\WINDOWS\V7.1A\LIB\UUID.LIB
C:\PROGRAM FILES (X86)\MICROSOFT SDKS\WINDOWS\V7.1A\LIB\ODBC32.LIB
C:\PROGRAM FILES (X86)\MICROSOFT SDKS\WINDOWS\V7.1A\LIB\ODBCCP32.LIB
G:\COCOSPROJECTS\POKEMON\PROJ.WIN32\DEBUG.WIN32\GAME.RES
G:\COCOSPROJECTS\POKEMON\PROJ.WIN32\DEBUG.WIN32\APPDELEGATE.OBJ
G:\COCOSPROJECTS\POKEMON\PROJ.WIN32\DEBUG.WIN32\APPPOKEMON.OBJ
G:\COCOSPROJECTS\POKEMON\PROJ.WIN32\DEBUG.WIN32\CHARACTER.OBJ
G:\COCOSPROJECTS\POKEMON\PROJ.WIN32\DEBUG.WIN32\TRAINER.OBJ
G:\COCOSPROJECTS\POKEMON\PROJ.WIN32\DEBUG.WIN32\MAIN.OBJ
G:\COCOSPROJECTS\POKEMON\PROJ.WIN32\DEBUG.WIN32\MAPMANAGER.OBJ
G:\COCOSPROJECTS\POKEMON\PROJ.WIN32\DEBUG.WIN32\POKEMON.OBJ
G:\COCOSPROJECTS\POKEMON\PROJ.WIN32\DEBUG.WIN32\SCENEMANAGER.OBJ
G:\COCOSPROJECTS\POKEMON\PROJ.WIN32\DEBUG.WIN32\SOUNDMANAGER.OBJ
G:\COCOSPROJECTS\POKEMON\PROJ.WIN32\DEBUG.WIN32\DEBUG.OBJ
G:\COCOSPROJECTS\POKEMON\PROJ.WIN32\DEBUG.WIN32\BELTUI.OBJ
G:\COCOSPROJECTS\POKEMON\PROJ.WIN32\DEBUG.WIN32\UIMANAGER.OBJ
C:\WINDOWS\SYSTEM32\TZRES.DLL
C:\WINDOWS\GLOBALIZATION\SORTING\SORTDEFAULT.NLS
C:\PROGRAM FILES (X86)\MICROSOFT VISUAL STUDIO 12.0\VC\LIB\MSVCPRT.LIB
C:\PROGRAM FILES (X86)\MICROSOFT VISUAL STUDIO 12.0\VC\LIB\MSVCRT.LIB
C:\PROGRAM FILES (X86)\MICROSOFT VISUAL STUDIO 12.0\VC\LIB\OLDNAMES.LIB
G:\COCOSPROJECTS\POKEMON\PROJ.WIN32\DEBUG.WIN32\LIBCOCOS2D_2013.LIB
G:\COCOSPROJECTS\POKEMON\PROJ.WIN32\DEBUG.WIN32\LIBBOX2D_2013.LIB
G:\COCOSPROJECTS\POKEMON\PROJ.WIN32\DEBUG.WIN32\LIBSPINE_2013.LIB
